-------------------------------------------------------------------------------
Test set: com.ysfaltn.typemapper.resolver.field.DateFieldResolverTest
-------------------------------------------------------------------------------
Tests run: 1, Failures: 0, Errors: 0, Skipped: 0, Time elapsed: 0 sec
